Gene,Loci,Affect macroautophgy,Affect ubiquitin–proteasome system (UPS),Affect stress granules,Affect endocytosis 
C9orf72,FTDALS1,Yes,No,Yes,No
SOD1,ALS1,Yes,Yes,No,No
TARDBP,ALS10,Yes,No,Yes,No
TBK1,FTDALS4,Yes,No,No,No
FUS,ALS6,No,No,Yes,No
FIG4,ALS11,Yes,No,No,Yes
OPTN,ALS12,Yes,No,No,No
UBQLN2,ALS15,Yes,Yes,No,No
SQSTM1,FTDALS3,Yes,Yes,No,No
CHMP2B,ALS17,Yes,Yes,No,No
ALS2,ALS2,No,No,No,Yes
