Gene,Frequency,Category,Population Group
SOD1,14.8,Familial,European
C9orf72,33.7,Familial,European
TARDBP,4.2,Familial,European
FUS,2.8,Familial,European
Other/Unknow,44.5,Familial,European
SOD1,30,Familial,Asian
C9orf72,2.3,Familial,Asian
TARDBP,1.5,Familial,Asian
FUS,6.4,Familial,Asian
Other/Unknow,59.8,Familial,Asian
SOD1,1.2,Sporadic,European
C9orf72,5.1,Sporadic,European
TARDBP,0.8,Sporadic,European
FUS,0.3,Sporadic,European
Other/Unknow,92.6,Sporadic,European
SOD1,1.5,Sporadic,Asian
C9orf72,0.3,Sporadic,Asian
TARDBP,0.2,Sporadic,Asian
FUS,0.9,Sporadic,Asian
Other/Unknow,97.1,Sporadic,Asian
